{
	label: 'intel',
	data: [[01, 2.158382], [02, 2.136501], [03, 2.176738], [04, 2.163117], [05, 2.180720], [06, 2.175013], [07, 2.170092], [08, 2.172469], [09, 2.194664], [10, 2.167998], [11, 2.167645], [12, 2.163598], [13, 2.181000], [14, 2.195158], [15, 2.454567], [16, 2.162174], [17, 2.153449], [18, 2.182971], [19, 2.201667], [20, 2.164898], [21, 2.124205], [22, 2.166062], [23, 2.172765], [26, 49.980351], [27, 2.149093], [28, 145.009430], [29, 2.212862], [30, 2.271614], [31, 2.170168], ]
}
