{
	label: 'intel',
	data: [[01, 9.591356], [02, 9.489043], [03, 9.704758], [04, 7.602981], [05, 11.209910], [06, 7.892724], [07, 7.489321], [08, 7.768074], [09, 8.925353], [10, 9.004970], [11, 8.963682], [12, 13.980511], [13, 7.589986], [14, 7.479722], [15, 12.383679], [16, 9.248744], [17, 7.877171], [18, 7.578052], [19, 11.154920], [20, 9.099643], [21, 9.530023], [22, 7.669383], [23, 9.784488], [26, 132.535362], [27, 7.439924], [28, 153.188168], [29, 7.670063], [30, 7.591018], [31, 7.758032], ]
}
