{
	label: 'libgomp',
	data: [[01, 6.921639], [02, 6.978382], [03, 6.867318], [04, 7.236170], [05, 22.212222], [06, 6.854916], [07, 6.872527], [08, 6.921068], [09, 6.956121], [10, 18.021619], [11, 6.900800], [12, 6.898872], [13, 6.917171], [14, 6.941155], [15, 48.683816], [16, 564.746945], [17, 6.936225], [18, 6.905819], [19, 6.910286], [20, 6.919750], [21, 6.866337], [22, 6.891919], [23, 6.806873], [26, 355.991184], [27, 6.912634], [28, 16.825087], [29, 6.863623], [30, 6.909481], [31, 6.876773], ]
}
