{
	label: 'libgomp',
	data: [[01, 8.677795], [02, 8.521854], [03, 10.055809], [04, 12.839257], [05, 8.736716], [06, 8.648701], [07, 8.679118], [08, 9.966720], [09, 8.718763], [10, 11.040516], [11, 8.556780], [12, 8.591545], [13, 9.069560], [14, 8.638220], [15, 19.056648], [16, 11.385156], [17, 8.746200], [18, 11.130895], [19, 8.803913], [20, 8.777396], [21, 8.524302], [22, 8.060237], [23, 8.931698], [26, 378.108942], [27, 8.499712], [28, 2682.447313], [29, 9.505373], [30, 9.258798], [31, 8.875642], ]
}
