{
	label: 'libgomp',
	data: [[01, 0.292437], [02, 0.450396], [03, 0.297324], [04, 0.292216], [05, 0.293371], [06, 0.294561], [07, 0.298998], [08, 0.450475], [09, 0.415116], [10, 0.298211], [11, 0.298667], [12, 0.428020], [13, 0.294768], [14, 0.297637], [15, 0.292080], [16, 0.294084], [19, 0.290313], [20, 0.415782], [21, 0.296954], [22, 0.289816], [23, 0.288915], [24, 0.295820], [25, 0.290090], [26, 0.417428], [27, 0.295105], [28, 0.417544], [29, 0.289264], [30, 0.289732], [31, 0.414174], ]
}
