{
	label: 'libgomp',
	data: [[01, 3.498127], [02, 3.986830], [03, 3.506075], [04, 3.507382], [05, 3.531677], [06, 3.501244], [07, 3.495857], [08, 4.042426], [09, 3.943939], [10, 3.491967], [11, 4.121730], [12, 4.096736], [13, 3.504241], [14, 3.486314], [15, 3.527578], [16, 4.033835], [19, 3.437763], [20, 3.917814], [21, 3.920273], [22, 3.489360], [23, 3.940331], [24, 3.953010], [25, 3.507390], [26, 3.920889], [27, 3.958192], [28, 3.920350], [29, 3.498244], [30, 3.539715], [31, 3.917098], ]
}
