{
	label: 'libgomp',
	data: [[01, 3.929183], [02, 3.516545], [03, 6.003709], [04, 4.136308], [05, 6.126328], [06, 3.469245], [07, 3.491963], [08, 3.941531], [09, 3.462626], [10, 3.468893], [11, 3.967206], [12, 3.496000], [13, 3.453989], [14, 6.613982], [15, 8.788679], [16, 6.475756], [17, 6.855166], [18, 9.060003], [19, 8.412081], [20, 8.739829], [21, 7.019515], [22, 9.890478], [23, 8.264720], [24, 3.462095], [25, 3.921571], [26, 3.485865], [27, 3.543526], [28, 3.449778], [29, 3.459618], [30, 3.481136], ]
}
