{
	label: 'libgomp',
	data: [[01, 8.560033], [02, 8.703534], [03, 332.539897], [04, 1048.378358], [05, 855.298659], [06, 8.787899], [07, 8.836054], [08, 39.603931], [09, 9.284578], [10, 11.628848], [11, 8.523971], [12, 8.815943], [13, 14.002124], [14, 19.666253], [15, 22.065236], [16, 2715.376218], [17, 2671.322966], [18, 19.653274], [19, 2673.675999], [20, 18.196869], [21, 2692.263276], [22, 2593.978239], [23, 19.768073], [24, 8.146840], [25, 9.186386], [26, 10.070597], [27, 8.560774], [28, 8.675580], [29, 8.665097], [30, 9.022281], ]
}
