{
	label: 'forestgomp',
	data: [[02, 3.158877], [03, 3.161321], [04, 3.173999], [05, 3.191718], [06, 3.182493], [07, 3.180333], [08, 3.175442], [09, 3.155449], [10, 3.150221], [11, 3.178052], [12, 3.153613], [13, 3.156747], [14,  ], [15, 3.155080], ]
}
