{
	label: 'intel',
	data: [[02, 0.396012], [03, 0.397609], [04, 0.396188], [05, 0.396320], [06, 0.394150], [07, 0.395697], [08, 0.395688], [09, 0.395238], [10, 0.396849], [11, 0.397862], [12, 0.396773], [13, 0.396526], [14, 0.398481], [15, 0.397812], ]
}
