{
	label: 'libgomp',
	data: [[02, 0.417380], [03, 0.289337], [04, 0.290725], [05, 0.415923], [06, 0.289614], [07, 0.446967], [08, 0.290037], [09, 0.289622], [10, 0.415968], [11, 0.290961], [12, 0.293429], [13, 0.295748], [14, 0.414734], [15, 0.289884], ]
}
