{
	label: 'intel',
	data: [[01, 7.390020], [02, 8.729676], [03, 8.712114], [04, 7.480585], [05, 8.656622], [06, 7.436910], [07, 7.590382], [08, 8.768608], [09, 7.467937], [10,  ], [11,  ], [12, 8.875970], [13, 8.893946], [14,  ], [15,  ], [16,  ], [17,  ], [18,  ], [19, 8.989722], [20, 7.391235], [21, 7.397018], [22, 8.932819], [23, 8.699349], [24, 8.645164], [25, 9.145439], [26, 8.982080], [27, 7.424895], [28, 9.005465], [29, 7.390887], [30, 8.816457], [31, 7.690850], ]
}
