{
	label: 'forestgomp',
	data: [[01, 0.292013], [02, 0.280172], [03, 0.294786], [04, 0.295904], [05, 0.283925], [06, 0.296299], [07, 0.279316], [08, 0.294328], [09, 0.294198], [10, 0.294878], [15, 0.294643], [16, 0.291830], [17, 0.294359], [18, 0.288444], [19, 0.287512], [20, 0.415007], [21, 0.287372], [22, 0.288362], [23, 0.287434], [24, 0.287842], [25, 0.288437], [26, 0.412963], [27, 0.417379], [28, 0.288822], [29, 0.287599], [30, 0.292747], [31, 0.293463], ]
}
