{
	label: 'forestgomp',
	data: [[01, 2.436985], [02, 2.335034], [03, 2.625785], [04, 2.632767], [05, 2.436601], [06, 2.593935], [07, 2.284223], [08, 2.597401], [09, 2.595763], [10, 2.590059], [15, 2.625781], [16, 2.421548], [17, 2.446376], [18, 2.429244], [19, 2.432978], [20, 2.440815], [21, 2.432223], [22, 2.431688], [23, 2.420764], [24, 2.380973], [25, 2.371786], [26, 2.423235], [27, 2.429803], [28, 2.425059], [29, 2.393906], [30, 2.402715], [31, 2.440495], ]
}
