{
	label: 'intel',
	data: [[01, 0.395088], [02, 0.394396], [03, 0.393745], [04, 0.397775], [05, 0.390328], [06, 0.391468], [07, 0.399333], [08, 0.396398], [09, 0.380188], [10, 0.392438], [15, 0.392228], [16, 0.393435], [17, 0.390468], [18, 0.393370], [19, 0.394847], [20, 0.395377], [21, 0.401012], [22, 0.397769], [23, 0.396806], [24, 0.398374], [25, 0.390328], [26, 0.391855], [27, 0.392134], [28, 0.393995], [29, 0.395054], [30, 0.396160], [31, 0.393596], ]
}
