{
	label: 'forestgomp',
	data: [[01, 3.727721], [02, 3.829253], [03, 3.840298], [04, 3.851542], [05, 3.848617], [06,  ], [07, 3.842095], [08, 3.825335], [09, 3.736386], [10, 3.807061], [11, 3.779201], [12, 3.762749], [13, 3.732943], [14, 3.760133], [15, 3.734169], [16, 3.763287], [17, 3.724072], [18, 3.736843], [19, 3.741383], [20, 3.757374], [21, 3.756031], [22, 3.688350], [23, 3.709454], [24, 3.755668], [25, 3.734724], [26, 3.758283], [27, 3.756107], [28, 3.866987], [29, 3.957443], ]
}
