{
	label: 'libgomp',
	data: [[01, 6.997011], [02, 8.414257], [03, 7.034953], [04, 7.038057], [05, 7.039457], [06, 9.443003], [07, 7.086330], [08, 8.428905], [09, 8.442505], [10, 6.963705], [11, 8.376772], [12, 8.325265], [13, 6.931469], [14, 7.058420], [15, 7.018027], [16, 7.038081], [17, 6.976078], [18, 6.977205], [19, 7.075773], [20, 6.972071], [21, 8.408958], [22, 6.954225], [23, 7.001487], [24, 7.075424], [25, 8.510671], [26, 7.018097], [27, 6.977056], [28, 6.891134], [29, 8.472205], ]
}
