{
	label: 'forestgomp',
	data: [[02, 2.423676], [03, 2.450615], [04, 2.444125], [05, 2.385972], [06, 2.414815], [07, 2.438627], [08, 2.437223], [09, 2.415563], [10, 2.414715], [11, 2.419092], [12, 2.418587], [13, 2.351564], [14, 2.440164], [15, 2.439135], [16, 2.414487], [17, 2.421622], [18, 2.425534], [19, 2.415063], [20, 2.445022], [21, 2.415399], [22, 2.451974], [23, 2.503551], [24, 2.343647], [25, 2.576085], [26, 2.412504], [27, 2.449392], [28, 2.433627], ]
}
