{
	label: 'forestgomp',
	data: [[02, 8.744018], [03, 9.165378], [04, 8.987838], [05, 8.888390], [06, 8.894837], [07, 8.939512], [08, 8.916730], [09, 8.939200], [10, 9.041033], [11, 8.891969], [12, 8.894606], [13, 8.989006], [14, 8.907697], [15, 8.830767], [16, 8.829934], [17, 8.899045], [18, 8.824073], [19, 8.871563], [20, 8.844776], [21, 8.830200], [22, 9.006052], [23, 8.849655], [24, 9.026469], [25, 8.824244], [26, 8.838627], [27, 8.941411], [28, 8.827538], ]
}
