{
	label: 'intel',
	data: [[02, 0.394915], [03, 0.396266], [04, 0.397327], [05, 0.393987], [06, 0.394646], [07, 0.393478], [08, 0.395806], [09, 0.394940], [10, 0.396062], [11, 0.397254], [12, 0.397007], [13, 0.394466], [14, 0.395678], [15, 0.396117], [16, 0.394956], [17, 0.395228], [18, 0.395470], [19, 0.395132], [20, 0.397071], [21, 0.397202], [22, 0.396806], [23, 0.397167], [24, 0.396794], [25, 0.393784], [26, 0.397480], [27, 0.395371], [28, 0.393043], ]
}
