{
	label: 'libgomp',
	data: [[02, 2.838767], [03, 2.831823], [04, 2.833422], [05, 2.833684], [06, 2.857570], [07, 2.833395], [08, 2.844592], [09, 2.831134], [10, 2.835073], [11, 2.841963], [12, 2.837957], [13, 2.832017], [14, 2.835588], [15, 2.832738], [16, 2.831825], [17, 2.832593], [18, 2.833813], [19, 2.831624], [20, 2.841351], [21, 2.842302], [22, 2.839028], [23, 2.838266], [24, 2.839563], [25, 2.837041], [26, 2.835007], [27, 2.832232], [28, 2.833881], ]
}
