{
	label: 'forestgomp',
	data: [[01, 3.204642], [02, 3.140693], [03, 3.192500], [04, 3.191961], [05, 3.171270], [06, 3.154943], [07, 3.181639], [08, 3.160454], [09, 3.164506], [10, 3.243354], [11, 3.179110], [12, 3.334319], [13, 3.203722], [14, 3.243026], [15, 3.153226], [16, 3.224001], [17, 3.183776], [18, 3.144281], [19, 3.148403], [20, 3.165687], [21, 3.147644], [22, 3.188896], [23,  ], [24,  ], [25,  ], [26,  ], [27,  ], [28,  ], [29, 2.976341], [30, 3.021453], ]
}
