{
	label: 'forestgomp',
	data: [[01, 3.159597], [02, 3.172374], [03, 3.168015], [04, 3.194015], [05, 3.341186], [06, 3.170679], [07, 3.377878], [08, 3.170466], [09, 3.062785], [10, 3.141841], [11, 3.151409], [12, 3.148653], [13, 3.354312], [14, 3.328725], [15, 3.052296], [16, 3.168538], [17, 3.167526], [18, 3.064520], [19, 3.188146], [20, 3.039245], [21, 3.147306], [22, 3.175592], [23,  ], [24,  ], [25,  ], [26,  ], [27,  ], [28,  ], [29, 3.168504], [30, 3.169546], ]
}
