{
	label: 'intel',
	data: [[01, 23.121904], [02, 25.818564], [03, 23.052227], [04, 17.723387], [05, 24.791917], [06, 23.328108], [07, 23.497660], [08, 22.765294], [09, 22.693291], [10, 23.023434], [11, 15.258503], [12, 21.786115], [13, 19.013172], [14, 22.946383], [15, 24.927773], [16, 21.215771], [17, 23.941572], [18, 24.458951], [19, 25.523677], [20, 22.354283], [21, 25.743642], [22, 25.305048], [23, 21.427264], [24, 26.557393], [25, 24.024147], [26, 25.610384], [27, 23.169308], [28, 19.892062], [29, 16.613575], [30, 25.029250], ]
}
