{
	label: 'libgomp',
	data: [[01, 3.930008], [02, 3.930118], [03, 4.013778], [04, 4.079143], [05, 4.094632], [06, 4.089608], [07, 4.090663], [08, 4.094322], [09, 4.100108], [10, 4.015519], [11, 3.931730], [12, 4.013629], [13, 3.937917], [14, 4.013423], [15, 4.006860], [16, 3.925916], [17, 4.026201], [18, 4.103576], [19, 4.017907], [20, 4.087577], [21, 3.949639], [22, 4.109230], [23, 4.116738], [24, 4.105354], [25, 4.102152], [26, 4.028246], [27, 4.025154], [28, 4.028129], [29, 3.957505], [30, 4.025163], ]
}
