{
	label: 'libgomp',
	data: [[01, 7.930864], [02, 8.463369], [03, 8.008148], [04, 8.047152], [05, 8.052059], [06, 7.850533], [07, 989.223410], [08, 8.138445], [09, 8.093810], [10, 7.990329], [11, 7.901962], [12, 320.968177], [13, 18.412781], [14, 7.851751], [15, 16.701222], [16, 58.380643], [17, 8.703059], [18, 819.678895], [19, 7.914083], [20, 7.902597], [21, 8.052392], [22, 7.971657], [23, 9.196559], [24, 7.923008], [25, 8.073999], [26, 8.022111], [27, 8.775902], [28, 8.056270], [29, 7.894238], [30, 8.479512], [31, 7.936492], ]
}
