{
	label: 'forestgomp',
	data: [[02,  ], [03, 7.745356], [04, 7.633546], [05, 8.040139], [06, 8.025700], [07, 7.730894], [08, 7.776483], [09, 7.796880], [10, 7.779825], [11, 7.774311], [12, 7.785030], [13, 7.852605], [14, 7.813337], [15, 7.770387], [16, 7.812218], [17, 7.823787], [18, 7.579232], [19, 7.611369], [20, 7.701181], [21, 7.708531], [22, 7.622320], [23, 7.531068], [24, 7.630166], [25, 7.694239], [26, 7.687433], [27, 7.697986], [28, 7.765626], [29, 7.719915], [30, 7.494963], [31, 7.733358], ]
}
