{
	label: 'forestgomp',
	data: [[02,  ], [03, 2.436572], [04, 2.428315], [05, 2.348137], [06, 2.609363], [07, 2.622697], [08, 2.616020], [09, 2.625652], [10, 2.614628], [11, 2.629971], [12, 2.606733], [13, 2.347111], [14, 2.458210], [15, 2.443155], [16, 2.350459], [17, 2.448066], [18, 2.508495], [19, 2.449353], [20, 2.340144], [21, 2.445476], [22, 2.327441], [23, 2.453406], [24, 2.451838], [25, 2.449052], [26, 2.411953], [27, 2.578554], [28, 2.608965], [29, 2.606160], [30, 2.442838], [31, 2.592584], ]
}
