{
	label: 'forestgomp',
	data: [[02,  ], [03, 3.164067], [04, 3.171869], [05, 3.055654], [06, 3.338962], [07, 3.351988], [08, 3.351962], [09, 3.345256], [10, 3.347137], [11, 3.352963], [12, 3.349564], [13, 3.062164], [14, 3.173383], [15, 3.172957], [16, 3.056871], [17, 3.169207], [18, 3.186782], [19, 3.181723], [20, 3.046127], [21, 3.173995], [22, 3.040438], [23, 3.167829], [24, 3.171770], [25, 3.168129], [26, 3.150676], [27, 3.157575], [28, 3.350027], [29, 3.353561], [30, 3.166683], [31, 3.344959], ]
}
