{
	label: 'forestgomp',
	data: [[02,  ], [03, 0.409657], [04, 0.282984], [05, 0.292782], [06, 0.295138], [07, 0.294128], [08, 0.295224], [09, 0.293254], [10, 0.293435], [11, 0.293114], [12, 0.295803], [13, 0.292448], [14, 0.451296], [15, 0.454207], [16, 0.453329], [17, 0.455017], [18, 0.294873], [19, 0.287183], [20, 0.293073], [21, 0.287182], [22, 0.295285], [23, 0.287632], [24, 0.287272], [25, 0.297178], [26, 0.424872], [27, 0.283409], [28, 0.295898], [29, 0.293788], [30, 0.411017], [31, 0.293151], ]
}
