{
	label: 'libgomp',
	data: [[02, 4.014194], [03, 4.011547], [04, 4.087186], [05, 3.939265], [06, 3.941334], [07, 4.059499], [08, 4.070967], [09, 4.075781], [10, 3.997543], [11, 3.934677], [12, 4.010226], [13, 4.018678], [14, 3.978435], [15, 4.010021], [16, 3.985915], [17, 4.100562], [18, 4.007672], [19, 3.925767], [20, 3.935919], [21, 3.927018], [22, 4.096615], [23, 4.103640], [24, 4.006648], [25, 4.013485], [26, 3.952438], [27, 4.102722], [28, 4.017468], [29, 3.923885], [30, 4.000955], [31, 4.019977], ]
}
